{
  "spider": "https://github.com/catvod/CatVodTVSpider/raw/master/jar/custom_spider.jar",
  "sites": [
    {
      "key": "快播雲",
      "name": "快播雲",
      "type": 0,
      "api": "http://www.kuaibozy.com/api.php/provide/vod/at/xml/",
      "playUrl": "",
      "categories": [
        "动漫",
        "国产剧",
        "日韩剧",
        "港台剧",
        "欧美剧",
        "泰剧",
        "综艺",
        "动作片",
        "喜剧片",
        "爱情片",
        "科幻片",
        "恐怖片",
        "剧情片",
        "战争片",
        "纪录片"
      ]
    },
    {
      "key": "csp_Imaple",
      "name": "楓林網",
      "type": 3,
      "api": "csp_Imaple",
      "searchable": 1,
      "quickSearch": 0,
      "filterable": 1
    },
    {
      "key": "水蜜桃",
      "name": "水蜜桃",
      "type": 1,
      "api": "http://51smt4.xyz/api.php/provide/vod/",
      "playUrl": "",
      "categories": [
      ],
      "quickSearch": 0,
      "searchable": 0
    },
    {
      "key": "天堂AV",
      "name": "天堂AV",
      "type": 0,
      "api": "http://www.njxinli.com/inc/api.php",
      "playUrl": "",
      "categories": [
      ],
      "quickSearch": 0,
      "searchable": 0
    },
    {
      "key": "博天堂",
      "name": "博天堂",
      "type": 0,
      "api": "http://bttcj.com/inc/sapi.php?ac=videolist",
      "playUrl": "",
      "categories": [
      ],
      "quickSearch": 0,
      "searchable": 0
    },
    {
      "key": "狼少年",
      "name": "狼少年",
      "type": 0,
      "api": "http://cjmygzy.com/inc/sapi.php?ac=videolist",
      "playUrl": "",
      "categories": [
      ],
      "quickSearch": 0,
      "searchable": 0
    },
    {
      "key": "JAV名優",
      "name": "JAV名優",
      "type": 0,
      "api": "http://mygzycj.com/api.php?ac=list",
      "playUrl": "",
      "categories": [
      ],
      "quickSearch": 0,
      "searchable": 0
    },
    {
      "key": "速度資源",
      "name": "速度資源",
      "type": 0,
      "api": "http://www.ggmmzy.com:9999/inc/xml",
      "playUrl": "",
      "categories": [
      ],
      "quickSearch": 0,
      "searchable": 0
    },
    {
      "key": "字幕網",
      "name": "字幕網",
      "type": 0,
      "api": "http://zmcj88.com/sapi?ac=videolist",
      "playUrl": "",
      "categories": [
      ],
      "quickSearch": 0,
      "searchable": 0
    },
    {
      "key": "188",
      "name": "188",
      "type": 0,
      "api": "http://www.800188188.com/inc/api.php",
      "playUrl": "",
      "categories": [
      ],
      "quickSearch": 0,
      "searchable": 0
    }
  ],
  "lives": [
    {
      "group": "央視",
      "channels": [
        {
          "name": "CCTV-1",
          "urls": [
            "http://183.207.248.71:80/cntv/live1/HD-8000k-1080P-cctv1/HD-8000k-1080P-cctv1",
            "http://39.134.24.24/PLTV/88888888/224/3221225684/index.m3u8",
            "http://39.134.24.24/PLTV/88888888/224/3221225829/index.m3u8",
            "http://39.134.24.24/PLTV/88888888/224/3221225652/index.m3u8",
            "http://39.134.24.24/PLTV/88888888/224/3221226024/index.m3u8"
          ]
        },
        {
          "name": "CCTV-2",
          "urls": [
            "http://183.207.248.71:80/cntv/live1/HD-8000k-1080P-cctv2/HD-8000k-1080P-cctv2",
            "http://39.134.24.24/PLTV/88888888/224/3221225686/index.m3u8"
          ]
        },
        {
          "name": "CCTV-3",
          "urls": [
            "http://183.207.248.71:80/cntv/live1/HD-8000k-1080P-cctv3/HD-8000k-1080P-cctv3",
            "http://39.134.24.24/PLTV/88888888/224/3221226023/index.m3u8",
            "http://39.134.24.24/PLTV/88888888/224/3221225630/index.m3u8"
          ]
        },
        {
          "name": "CCTV-4",
          "urls": [
            "http://183.207.248.71:80/cntv/live1/cctv-4/cctv-4",
            "http://39.134.24.24/PLTV/88888888/224/3221225662/index.m3u8"
          ]
        },
        {
          "name": "CCTV-5",
          "urls": [
            "http://183.207.248.71:80/cntv/live1/HD-8000k-1080P-cctv5/HD-8000k-1080P-cctv5",
            "http://39.134.24.24/PLTV/88888888/224/3221226025/index.m3u8",
            "http://39.134.24.24/PLTV/88888888/224/3221225758/index.m3u8"
          ]
        },
        {
          "name": "CCTV-5+",
          "urls": [
            "http://183.207.248.71:80/cntv/live1/HD-8000k-1080P-cctv05plus/HD-8000k-1080P-cctv05plus",
            "http://39.134.24.24/PLTV/88888888/224/3221225718/index.m3u8"
          ]
        },
        {
          "name": "CCTV-6",
          "urls": [
            "http://183.207.248.71:80/cntv/live1/cctv-6/cctv-6",
            "http://39.134.24.24/PLTV/88888888/224/3221226027/index.m3u8",
            "http://39.134.24.24/PLTV/88888888/224/3221225708/index.m3u8"
          ]
        },
        {
          "name": "CCTV-7",
          "urls": [
            "http://183.207.248.71:80/cntv/live1/HD-8000k-1080P-cctv7/HD-8000k-1080P-cctv7",
            "http://39.134.24.24/PLTV/88888888/224/3221225855/index.m3u8",
            "http://39.134.24.24/PLTV/88888888/224/3221225768/index.m3u8"
          ]
        },
        {
          "name": "CCTV-8",
          "urls": [
            "http://183.207.248.71:80/cntv/live1/HD-8000k-1080P-cctv8/HD-8000k-1080P-cctv8",
            "http://39.134.24.24/PLTV/88888888/224/3221226029/index.m3u8",
            "http://39.134.24.24/PLTV/88888888/224/3221225666/index.m3u8"
          ]
        },
        {
          "name": "CCTV-9",
          "urls": [
            "http://183.207.248.71:80/cntv/live1/HD-8000k-1080P-cctv9/HD-8000k-1080P-cctv9",
            "http://39.134.24.24/PLTV/88888888/224/3221225672/index.m3u8"
          ]
        },
        {
          "name": "CCTV-10",
          "urls": [
            "http://183.207.248.71:80/cntv/live1/HD-8000k-1080P-cctv10/HD-8000k-1080P-cctv10",
            "http://39.134.24.24/PLTV/88888888/224/3221225823/index.m3u8",
            "http://39.134.24.24/PLTV/88888888/224/3221225782/index.m3u8"
          ]
        },
        {
          "name": "CCTV-11",
          "urls": [
            "http://183.207.248.71:80/cntv/live1/n-cctv-11/n-cctv-11",
            "http://39.134.24.24/PLTV/88888888/224/3221225825/index.m3u8",
            "http://39.134.24.24/PLTV/88888888/224/3221225774/index.m3u8"
          ]
        },
        {
          "name": "CCTV-12",
          "urls": [
            "http://183.207.248.71:80/cntv/live1/HD-8000k-1080P-cctv12/HD-8000k-1080P-cctv12",
            "http://39.134.24.24/PLTV/88888888/224/3221225702/index.m3u8"
          ]
        },
        {
          "name": "CCTV-13",
          "urls": [
            "http://183.207.248.71:80/cntv/live1/cctv-13/cctv-13",
            "http://39.134.24.24/PLTV/88888888/224/3221225827/index.m3u8",
            "http://39.134.24.24/PLTV/88888888/224/3221225612/index.m3u8",
            "http://39.134.24.24/PLTV/88888888/224/3221225650/index.m3u8"
          ]
        },
        {
          "name": "CCTV-14",
          "urls": [
            "http://183.207.248.71:80/cntv/live1/HD-8000k-1080P-cctv14/HD-8000k-1080P-cctv14",
            "http://39.134.24.24/PLTV/88888888/224/3221225857/index.m3u8",
            "http://39.134.24.24/PLTV/88888888/224/3221225658/index.m3u8"
          ]
        },
        {
          "name": "CCTV-15",
          "urls": [
            "http://183.207.248.71:80/cntv/live1/n-cctv-15/n-cctv-15",
            "http://39.134.24.24/PLTV/88888888/224/3221225636/index.m3u8"
          ]
        },
        {
          "name": "CCTV-17",
          "urls": [
            "http://183.207.248.71:80/cntv/live1/HD-8000k-1080P-cctv17/HD-8000k-1080P-cctv17",
            "http://39.134.24.24/PLTV/88888888/224/3221225859/index.m3u8"
          ]
        }
      ]
    },
    {
      "group": "衛視",
      "channels": [
        {
          "name": "安多衛視",
          "urls": [
            "http://183.207.248.71:80/cntv/live1/anduostv/anduostv"
          ]
        },
        {
          "name": "安徽衛視",
          "urls": [
            "http://183.207.248.71:80/cntv/live1/HD-8000k-1080P-anhuistv/HD-8000k-1080P-anhuistv",
            "http://39.134.24.24/PLTV/88888888/224/3221225847/index.m3u8",
            "http://39.134.24.24/PLTV/88888888/224/3221225638/index.m3u8"
          ]
        },
        {
          "name": "北京衛視",
          "urls": [
            "http://183.207.248.71:80/cntv/live1/HD-2500k-1080P-beijingstv/HD-2500k-1080P-beijingstv",
            "http://39.134.24.24/PLTV/88888888/224/3221225833/index.m3u8",
            "http://39.134.24.24/PLTV/88888888/224/3221225724/index.m3u8",
            "http://39.134.24.24/PLTV/88888888/224/3221225646/index.m3u8",
            "http://39.134.24.24/PLTV/88888888/224/3221225735/index.m3u8"
          ]
        },
        {
          "name": "重慶衛視",
          "urls": [
            "http://183.207.248.71:80/cntv/live1/HD-8000k-1080P-chongqingstv/HD-8000k-1080P-chongqingstv",
            "http://39.134.24.24/PLTV/88888888/224/3221225592/index.m3u8"
          ]
        },
        {
          "name": "東方衛視",
          "urls": [
            "http://39.134.24.24/PLTV/88888888/224/3221225676/index.m3u8",
            "http://39.134.24.24/PLTV/88888888/224/3221225835/index.m3u8",
            "http://39.134.24.24/PLTV/88888888/224/3221225622/index.m3u8",
            "http://39.134.24.24/PLTV/88888888/224/3221225976/index.m3u8"
          ]
        },
        {
          "name": "東南衛視",
          "urls": [
            "http://183.207.248.71:80/cntv/live1/n-dongnanstv/n-dongnanstv",
            "http://39.134.24.24/PLTV/88888888/224/3221225722/index.m3u8"
          ]
        },
        {
          "name": "甘肅衛視",
          "urls": [
            "http://183.207.248.71:80/cntv/live1/n-gansustv/n-gansustv",
            "http://39.134.24.24/PLTV/88888888/224/3221225714/index.m3u8"
          ]
        },
        {
          "name": "廣東衛視",
          "urls": [
            "http://183.207.248.71:80/cntv/live1/n-guangdongstv/n-guangdongstv",
            "http://39.134.24.24/PLTV/88888888/224/3221225692/index.m3u8"
          ]
        },
        {
          "name": "廣西衛視",
          "urls": [
            "http://39.134.24.24/PLTV/88888888/224/3221225594/index.m3u8"
          ]
        },
        {
          "name": "貴州衛視",
          "urls": [
            "http://39.134.24.24/PLTV/88888888/224/3221225610/index.m3u8"
          ]
        },
        {
          "name": "海南衛視",
          "urls": [
            "http://39.134.24.24/PLTV/88888888/224/3221225614/index.m3u8"
          ]
        },
        {
          "name": "河北衛視",
          "urls": [
            "http://183.207.248.71:80/cntv/live1/n-hebeistv/n-hebeistv",
            "http://39.134.24.24/PLTV/88888888/224/3221225744/index.m3u8"
          ]
        },
        {
          "name": "河南衛視",
          "urls": [
            "http://39.134.24.24/PLTV/88888888/224/3221225716/index.m3u8"
          ]
        },
        {
          "name": "黑龍江衛視",
          "urls": [
            "http://183.207.248.71:80/cntv/live1/HD-8000k-1080P-heilongjiangstv/HD-8000k-1080P-heilongjiangstv",
            "http://39.134.24.24/PLTV/88888888/224/3221225690/index.m3u8"
          ]
        },
        {
          "name": "湖北衛視",
          "urls": [
            "http://183.207.248.71:80/cntv/live1/HD-2500k-1080P-hubeistv/HD-2500k-1080P-hubeistv",
            "http://39.134.24.24/PLTV/88888888/224/3221225674/index.m3u8"
          ]
        },
        {
          "name": "湖南衛視",
          "urls": [
            "http://183.207.248.71:80/cntv/live1/hunanstv/hunanstv",
            "http://39.134.24.24/PLTV/88888888/224/3221225616/index.m3u8"
          ]
        },
        {
          "name": "吉林衛視",
          "urls": [
            "http://39.134.24.24/PLTV/88888888/224/3221225804/index.m3u8"
          ]
        },
        {
          "name": "江蘇衛視",
          "urls": [
            "http://183.207.248.71:80/cntv/live1/HD-2500k-1080P-jiangsustv/HD-2500k-1080P-jiangsustv",
            "http://39.134.24.24/PLTV/88888888/224/3221225602/index.m3u8",
            "http://39.134.24.24/PLTV/88888888/224/3221225734/index.m3u8"
          ]
        },
        {
          "name": "江西衛視",
          "urls": [
            "http://183.207.248.71:80/cntv/live1/jiangxistv/jiangxistv",
            "http://39.134.24.24/PLTV/88888888/224/3221225682/index.m3u8"
          ]
        },
        {
          "name": "康巴衛視",
          "urls": [
            "http://183.207.248.71:80/cntv/live1/SD-4000k-576P-kambatv/SD-4000k-576P-kambatv"
          ]
        },
        {
          "name": "遼寧衛視",
          "urls": [
            "http://39.134.24.24/PLTV/88888888/224/3221225726/index.m3u8"
          ]
        },
        {
          "name": "內蒙古衛視",
          "urls": [
            "http://39.134.24.24/PLTV/88888888/224/3221225626/index.m3u8"
          ]
        },
        {
          "name": "寧夏衛視",
          "urls": [
            "http://183.207.248.71:80/cntv/live1/n-ningxiastv/n-ningxiastv",
            "http://39.134.24.24/PLTV/88888888/224/3221225730/index.m3u8"
          ]
        },
        {
          "name": "青海衛視",
          "urls": [
            "http://183.207.248.71:80/cntv/live1/n-qinghaistv/n-qinghaistv",
            "http://39.134.24.24/PLTV/88888888/224/3221225606/index.m3u8"
          ]
        },
        {
          "name": "山東衛視",
          "urls": [
            "http://183.207.248.71:80/cntv/live1/HD-2500k-1080P-shandongstv/HD-2500k-1080P-shandongstv",
            "http://39.134.24.24/PLTV/88888888/224/3221225841/index.m3u8",
            "http://39.134.24.24/PLTV/88888888/224/3221225796/index.m3u8"
          ]
        },
        {
          "name": "山西衛視",
          "urls": [
            "http://39.134.24.24/PLTV/88888888/224/3221225738/index.m3u8"
          ]
        },
        {
          "name": "陜西衛視",
          "urls": [
            "http://183.207.248.71:80/cntv/live1/n-shanxi1stv/n-shanxi1stv"
          ]
        },
        {
          "name": "深圳衛視",
          "urls": [
            "http://183.207.248.71:80/cntv/live1/HD-2500k-1080P-shenzhenstv/HD-2500k-1080P-shenzhenstv",
            "http://39.134.24.24/PLTV/88888888/224/3221225843/index.m3u8",
            "http://39.134.24.24/PLTV/88888888/224/3221225764/index.m3u8",
            "http://39.134.24.24/PLTV/88888888/224/3221225590/index.m3u8"
          ]
        },
        {
          "name": "四川衛視",
          "urls": [
            "http://183.207.248.71:80/cntv/live1/n-sichuanstv/n-sichuanstv",
            "http://39.134.24.24/PLTV/88888888/224/3221225704/index.m3u8"
          ]
        },
        {
          "name": "天津衛視",
          "urls": [
            "http://183.207.248.71:80/cntv/live1/HD-2500k-1080P-tianjinstv/HD-2500k-1080P-tianjinstv"
          ]
        },
        {
          "name": "雲南衛視",
          "urls": [
            "http://183.207.248.71:80/cntv/live1/n-yntv1/n-yntv1",
            "http://39.134.24.24/PLTV/88888888/224/3221225696/index.m3u8"
          ]
        },
        {
          "name": "浙江衛視",
          "urls": [
            "http://39.134.24.24/PLTV/88888888/224/3221225642/index.m3u8"
          ]
        }
      ]
    }
  ],
  "parses": [
  ],
  "flags": [
  ],
  "ijk": [
    {
      "group": "軟解碼",
      "options": [
        {
          "category": 4,
          "name": "opensles",
          "value": "0"
        },
        {
          "category": 4,
          "name": "overlay-format",
          "value": "842225234"
        },
        {
          "category": 4,
          "name": "framedrop",
          "value": "1"
        },
        {
          "category": 4,
          "name": "soundtouch",
          "value": "1"
        },
        {
          "category": 4,
          "name": "start-on-prepared",
          "value": "1"
        },
        {
          "category": 1,
          "name": "http-detect-range-support",
          "value": "0"
        },
        {
          "category": 1,
          "name": "fflags",
          "value": "fastseek"
        },
        {
          "category": 2,
          "name": "skip_loop_filter",
          "value": "48"
        },
        {
          "category": 4,
          "name": "reconnect",
          "value": "1"
        },
        {
          "category": 4,
          "name": "max-buffer-size",
          "value": "5242880"
        },
        {
          "category": 4,
          "name": "enable-accurate-seek",
          "value": "0"
        },
        {
          "category": 4,
          "name": "mediacodec",
          "value": "0"
        },
        {
          "category": 4,
          "name": "mediacodec-auto-rotate",
          "value": "0"
        },
        {
          "category": 4,
          "name": "mediacodec-handle-resolution-change",
          "value": "0"
        },
        {
          "category": 4,
          "name": "mediacodec-hevc",
          "value": "0"
        }
      ]
    },
    {
      "group": "硬解碼",
      "options": [
        {
          "category": 4,
          "name": "opensles",
          "value": "0"
        },
        {
          "category": 4,
          "name": "overlay-format",
          "value": "842225234"
        },
        {
          "category": 4,
          "name": "framedrop",
          "value": "1"
        },
        {
          "category": 4,
          "name": "soundtouch",
          "value": "1"
        },
        {
          "category": 4,
          "name": "start-on-prepared",
          "value": "1"
        },
        {
          "category": 1,
          "name": "http-detect-range-support",
          "value": "0"
        },
        {
          "category": 1,
          "name": "fflags",
          "value": "fastseek"
        },
        {
          "category": 2,
          "name": "skip_loop_filter",
          "value": "48"
        },
        {
          "category": 4,
          "name": "reconnect",
          "value": "1"
        },
        {
          "category": 4,
          "name": "max-buffer-size",
          "value": "5242880"
        },
        {
          "category": 4,
          "name": "enable-accurate-seek",
          "value": "0"
        },
        {
          "category": 4,
          "name": "mediacodec",
          "value": "1"
        },
        {
          "category": 4,
          "name": "mediacodec-auto-rotate",
          "value": "1"
        },
        {
          "category": 4,
          "name": "mediacodec-handle-resolution-change",
          "value": "1"
        },
        {
          "category": 4,
          "name": "mediacodec-hevc",
          "value": "1"
        }
      ]
    }
  ],
  "ads": [
    "mimg.0c1q0l.cn",
    "www.googletagmanager.com",
    "www.google-analytics.com",
    "mc.usihnbcq.cn",
    "mg.g1mm3d.cn",
    "mscs.svaeuzh.cn",
    "cnzz.hhttm.top",
    "tp.vinuxhome.com",
    "cnzz.mmstat.com",
    "www.baihuillq.com",
    "s23.cnzz.com",
    "z3.cnzz.com",
    "c.cnzz.com",
    "stj.v1vo.top",
    "z12.cnzz.com",
    "img.mosflower.cn",
    "tips.gamevvip.com",
    "ehwe.yhdtns.com",
    "xdn.cqqc3.com",
    "www.jixunkyy.cn",
    "sp.chemacid.cn",
    "hm.baidu.com",
    "s9.cnzz.com",
    "z6.cnzz.com",
    "um.cavuc.com",
    "mav.mavuz.com",
    "wofwk.aoidf3.com",
    "z5.cnzz.com",
    "xc.hubeijieshikj.cn",
    "tj.tianwenhu.com",
    "xg.gars57.cn",
    "k.jinxiuzhilv.com",
    "cdn.bootcss.com",
    "ppl.xunzhuo123.com",
    "xomk.jiangjunmh.top",
    "img.xunzhuo123.com",
    "z1.cnzz.com",
    "s13.cnzz.com",
    "xg.huataisangao.cn",
    "z7.cnzz.com",
    "xg.huataisangao.cn",
    "z2.cnzz.com",
    "s96.cnzz.com",
    "q11.cnzz.com",
    "thy.dacedsfa.cn",
    "xg.whsbpw.cn",
    "s19.cnzz.com",
    "z8.cnzz.com",
    "s4.cnzz.com",
    "f5w.as12df.top",
    "ae01.alicdn.com",
    "www.92424.cn",
    "k.wudejia.com",
    "vivovip.mmszxc.top",
    "qiu.xixiqiu.com",
    "cdnjs.hnfenxun.com",
    "cms.qdwght.com"
  ]
}
